{
  "staticPath": "static/",
  "serviceWorker": {
    "requestTimeout": 10000,
    "path": "js/boundle/serviceWorker.min.js"
  },
  "appShell": {
    "offlinePage": "/offline",
    "staticFiles": [
      "/offline",
      "/static/img/defaultProfile.png",
      "/static/img/purky_wb.png"
    ]
  },
  "serverPush": [
    { "path": "/css/forefront.boundle.min.css", "as": "style" },
    { "path": "/css/boundle.min.css", "as": "style" },
    { "path": "/js/boundle/main.boundle.min.js", "as": "script" },
    { "path": "/img/purky_wb.png", "as": "image" },
    { "path": "/fonts/fa-solid-400.woff2", "as": "font" },
    { "path": "/fonts/fa-regular-400.woff2", "as": "font" },
    { "path": "/fonts/fa-brands-400.woff2", "as": "font" }
  ]
}
